DisasterWise: AI-Powered Global Disaster Risk Prediction Platform
…
`summarise()` has grouped output by 'Start Year'. You can override using the
`.groups` argument.

# Check the aggregated data to ensure it has multiple rows with distinct values
print(agg_data)

# A tibble: 32 × 4
   `Start Year` `Disaster Type` Aid_Costs Insured_Damage
          <dbl> <chr>               <dbl>          <dbl>
 1         2000 Flood              165846           2654
 2         2001 Earthquake         139706         258125
 3         2001 Flood               14702          51625
 4         2002 Flood               18607        2439308
 5         2002 Storm                 190         287974
 6         2003 Earthquake            653          43065
 7         2003 Storm                 230         834807
 8         2003 Wildfire              835           9938
 9         2004 Earthquake            260        1226078
10         2004 Storm                3345         322635
# ℹ 22 more rows
…
